atv53/simulation/qsim/atv53.msim.vcd
$comment
	File created using the following command:
		vcd file atv53.msim.vcd -direction
$end
$date
	Sun Sep 15 23:46:53 2024
$end
$version
	ModelSim Version 2020.1
$end
$timescale
	1ps
$end

$scope module atv53_vhd_vec_tst $end
$var wire 1 ! CLOCK_50 $end
$var wire 1 " flag $end
$var wire 1 # KEY [3] $end
$var wire 1 $ KEY [2] $end
$var wire 1 % KEY [1] $end
$var wire 1 & KEY [0] $end
$var wire 1 ' Palavra_Controle [11] $end
$var wire 1 ( Palavra_Controle [10] $end
$var wire 1 ) Palavra_Controle [9] $end
$var wire 1 * Palavra_Controle [8] $end
$var wire 1 + Palavra_Controle [7] $end
$var wire 1 , Palavra_Controle [6] $end
$var wire 1 - Palavra_Controle [5] $end
$var wire 1 . Palavra_Controle [4] $end
$var wire 1 / Palavra_Controle [3] $end
$var wire 1 0 Palavra_Controle [2] $end
$var wire 1 1 Palavra_Controle [1] $end
$var wire 1 2 Palavra_Controle [0] $end
$var wire 1 3 PC_OUT [8] $end
$var wire 1 4 PC_OUT [7] $end
$var wire 1 5 PC_OUT [6] $end
$var wire 1 6 PC_OUT [5] $end
$var wire 1 7 PC_OUT [4] $end
$var wire 1 8 PC_OUT [3] $end
$var wire 1 9 PC_OUT [2] $end
$var wire 1 : PC_OUT [1] $end
$var wire 1 ; PC_OUT [0] $end

$scope module i1 $end
$var wire 1 < gnd $end
$var wire 1 = vcc $end
$var wire 1 > unknown $end
$var wire 1 ? devoe $end
$var wire 1 @ devclrn $end
$var wire 1 A devpor $end
$var wire 1 B ww_devoe $end
$var wire 1 C ww_devclrn $end
$var wire 1 D ww_devpor $end
$var wire 1 E ww_CLOCK_50 $end
$var wire 1 F ww_KEY [3] $end
$var wire 1 G ww_KEY [2] $end
$var wire 1 H ww_KEY [1] $end
$var wire 1 I ww_KEY [0] $end
$var wire 1 J ww_PC_OUT [8] $end
$var wire 1 K ww_PC_OUT [7] $end
$var wire 1 L ww_PC_OUT [6] $end
$var wire 1 M ww_PC_OUT [5] $end
$var wire 1 N ww_PC_OUT [4] $end
$var wire 1 O ww_PC_OUT [3] $end
$var wire 1 P ww_PC_OUT [2] $end
$var wire 1 Q ww_PC_OUT [1] $end
$var wire 1 R ww_PC_OUT [0] $end
$var wire 1 S ww_Palavra_Controle [11] $end
$var wire 1 T ww_Palavra_Controle [10] $end
$var wire 1 U ww_Palavra_Controle [9] $end
$var wire 1 V ww_Palavra_Controle [8] $end
$var wire 1 W ww_Palavra_Controle [7] $end
$var wire 1 X ww_Palavra_Controle [6] $end
$var wire 1 Y ww_Palavra_Controle [5] $end
$var wire 1 Z ww_Palavra_Controle [4] $end
$var wire 1 [ ww_Palavra_Controle [3] $end
$var wire 1 \ ww_Palavra_Controle [2] $end
$var wire 1 ] ww_Palavra_Controle [1] $end
$var wire 1 ^ ww_Palavra_Controle [0] $end
$var wire 1 _ ww_flag $end
$var wire 1 ` \CLOCK_50~input_o\ $end
$var wire 1 a \KEY[1]~input_o\ $end
$var wire 1 b \KEY[2]~input_o\ $end
$var wire 1 c \KEY[3]~input_o\ $end
$var wire 1 d \PC_OUT[0]~output_o\ $end
$var wire 1 e \PC_OUT[1]~output_o\ $end
$var wire 1 f \PC_OUT[2]~output_o\ $end
$var wire 1 g \PC_OUT[3]~output_o\ $end
$var wire 1 h \PC_OUT[4]~output_o\ $end
$var wire 1 i \PC_OUT[5]~output_o\ $end
$var wire 1 j \PC_OUT[6]~output_o\ $end
$var wire 1 k \PC_OUT[7]~output_o\ $end
$var wire 1 l \PC_OUT[8]~output_o\ $end
$var wire 1 m \Palavra_Controle[0]~output_o\ $end
$var wire 1 n \Palavra_Controle[1]~output_o\ $end
$var wire 1 o \Palavra_Controle[2]~output_o\ $end
$var wire 1 p \Palavra_Controle[3]~output_o\ $end
$var wire 1 q \Palavra_Controle[4]~output_o\ $end
$var wire 1 r \Palavra_Controle[5]~output_o\ $end
$var wire 1 s \Palavra_Controle[6]~output_o\ $end
$var wire 1 t \Palavra_Controle[7]~output_o\ $end
$var wire 1 u \Palavra_Controle[8]~output_o\ $end
$var wire 1 v \Palavra_Controle[9]~output_o\ $end
$var wire 1 w \Palavra_Controle[10]~output_o\ $end
$var wire 1 x \Palavra_Controle[11]~output_o\ $end
$var wire 1 y \flag~output_o\ $end
$var wire 1 z \KEY[0]~input_o\ $end
$var wire 1 { \incrementaPC|Add0~2\ $end
$var wire 1 | \incrementaPC|Add0~6\ $end
$var wire 1 } \incrementaPC|Add0~10\ $end
$var wire 1 ~ \incrementaPC|Add0~13_sumout\ $end
$var wire 1 !! \ROM1|memROM~7_combout\ $end
$var wire 1 "! \ROM1|memROM~3_combout\ $end
$var wire 1 #! \DEC_Instrucao|saida~8_combout\ $end
$var wire 1 $! \MUXProxPC|saida_MUX[3]~3_combout\ $end
$var wire 1 %! \ROM1|memROM~2_combout\ $end
$var wire 1 &! \MUXProxPC|Equal1~0_combout\ $end
$var wire 1 '! \incrementaPC|Add0~9_sumout\ $end
$var wire 1 (! \ROM1|memROM~6_combout\ $end
$var wire 1 )! \MUXProxPC|saida_MUX[2]~2_combout\ $end
$var wire 1 *! \ROM1|memROM~1_combout\ $end
$var wire 1 +! \MUXProxPC|Equal2~0_combout\ $end
$var wire 1 ,! \incrementaPC|Add0~5_sumout\ $end
$var wire 1 -! \ROM1|memROM~5_combout\ $end
$var wire 1 .! \MUXProxPC|saida_MUX[1]~1_combout\ $end
$var wire 1 /! \ROM1|memROM~0_combout\ $end
$var wire 1 0! \DEC_Instrucao|Equal10~0_combout\ $end
$var wire 1 1! \DEC_Instrucao|saida~9_combout\ $end
$var wire 1 2! \incrementaPC|Add0~14\ $end
$var wire 1 3! \incrementaPC|Add0~17_sumout\ $end
$var wire 1 4! \MUXProxPC|saida_MUX[4]~4_combout\ $end
$var wire 1 5! \incrementaPC|Add0~18\ $end
$var wire 1 6! \incrementaPC|Add0~21_sumout\ $end
$var wire 1 7! \MUXProxPC|saida_MUX[5]~5_combout\ $end
$var wire 1 8! \incrementaPC|Add0~22\ $end
$var wire 1 9! \incrementaPC|Add0~25_sumout\ $end
$var wire 1 :! \MUXProxPC|saida_MUX[6]~6_combout\ $end
$var wire 1 ;! \incrementaPC|Add0~26\ $end
$var wire 1 <! \incrementaPC|Add0~29_sumout\ $end
$var wire 1 =! \MUXProxPC|saida_MUX[7]~7_combout\ $end
$var wire 1 >! \incrementaPC|Add0~30\ $end
$var wire 1 ?! \incrementaPC|Add0~33_sumout\ $end
$var wire 1 @! \ROM1|memROM~8_combout\ $end
$var wire 1 A! \MUXProxPC|saida_MUX[8]~8_combout\ $end
$var wire 1 B! \DEC_Instrucao|saida[4]~0_combout\ $end
$var wire 1 C! \incrementaPC|Add0~1_sumout\ $end
$var wire 1 D! \ROM1|memROM~4_combout\ $end
$var wire 1 E! \MUXProxPC|saida_MUX[0]~0_combout\ $end
$var wire 1 F! \DEC_Instrucao|saida[0]~1_combout\ $end
$var wire 1 G! \DEC_Instrucao|saida[2]~3_combout\ $end
$var wire 1 H! \DEC_Instrucao|saida[4]~4_combout\ $end
$var wire 1 I! \DEC_Instrucao|saida[5]~5_combout\ $end
$var wire 1 J! \DEC_Instrucao|saida[1]~2_combout\ $end
$var wire 1 K! \DEC_Instrucao|saida[6]~6_combout\ $end
$var wire 1 L! \DEC_Instrucao|saida~7_combout\ $end
$var wire 1 M! \DEC_Instrucao|Equal4~0_combout\ $end
$var wire 1 N! \REG_RETORNO|DOUT\ [8] $end
$var wire 1 O! \REG_RETORNO|DOUT\ [7] $end
$var wire 1 P! \REG_RETORNO|DOUT\ [6] $end
$var wire 1 Q! \REG_RETORNO|DOUT\ [5] $end
$var wire 1 R! \REG_RETORNO|DOUT\ [4] $end
$var wire 1 S! \REG_RETORNO|DOUT\ [3] $end
$var wire 1 T! \REG_RETORNO|DOUT\ [2] $end
$var wire 1 U! \REG_RETORNO|DOUT\ [1] $end
$var wire 1 V! \REG_RETORNO|DOUT\ [0] $end
$var wire 1 W! \PC|DOUT\ [8] $end
$var wire 1 X! \PC|DOUT\ [7] $end
$var wire 1 Y! \PC|DOUT\ [6] $end
$var wire 1 Z! \PC|DOUT\ [5] $end
$var wire 1 [! \PC|DOUT\ [4] $end
$var wire 1 \! \PC|DOUT\ [3] $end
$var wire 1 ]! \PC|DOUT\ [2] $end
$var wire 1 ^! \PC|DOUT\ [1] $end
$var wire 1 _! \PC|DOUT\ [0] $end
$var wire 1 `! \REG_RETORNO|ALT_INV_DOUT\ [8] $end
$var wire 1 a! \REG_RETORNO|ALT_INV_DOUT\ [7] $end
$var wire 1 b! \REG_RETORNO|ALT_INV_DOUT\ [6] $end
$var wire 1 c! \REG_RETORNO|ALT_INV_DOUT\ [5] $end
$var wire 1 d! \REG_RETORNO|ALT_INV_DOUT\ [4] $end
$var wire 1 e! \REG_RETORNO|ALT_INV_DOUT\ [3] $end
$var wire 1 f! \REG_RETORNO|ALT_INV_DOUT\ [2] $end
$var wire 1 g! \REG_RETORNO|ALT_INV_DOUT\ [1] $end
$var wire 1 h! \REG_RETORNO|ALT_INV_DOUT\ [0] $end
$var wire 1 i! \ROM1|ALT_INV_memROM~8_combout\ $end
$var wire 1 j! \DEC_Instrucao|ALT_INV_Equal10~0_combout\ $end
$var wire 1 k! \ROM1|ALT_INV_memROM~7_combout\ $end
$var wire 1 l! \ROM1|ALT_INV_memROM~6_combout\ $end
$var wire 1 m! \ROM1|ALT_INV_memROM~5_combout\ $end
$var wire 1 n! \MUXProxPC|ALT_INV_Equal1~0_combout\ $end
$var wire 1 o! \ROM1|ALT_INV_memROM~4_combout\ $end
$var wire 1 p! \MUXProxPC|ALT_INV_Equal2~0_combout\ $end
$var wire 1 q! \DEC_Instrucao|ALT_INV_saida~9_combout\ $end
$var wire 1 r! \DEC_Instrucao|ALT_INV_saida[2]~3_combout\ $end
$var wire 1 s! \DEC_Instrucao|ALT_INV_saida[1]~2_combout\ $end
$var wire 1 t! \ROM1|ALT_INV_memROM~3_combout\ $end
$var wire 1 u! \ROM1|ALT_INV_memROM~2_combout\ $end
$var wire 1 v! \ROM1|ALT_INV_memROM~1_combout\ $end
$var wire 1 w! \DEC_Instrucao|ALT_INV_saida[4]~0_combout\ $end
$var wire 1 x! \ROM1|ALT_INV_memROM~0_combout\ $end
$var wire 1 y! \PC|ALT_INV_DOUT\ [8] $end
$var wire 1 z! \PC|ALT_INV_DOUT\ [7] $end
$var wire 1 {! \PC|ALT_INV_DOUT\ [6] $end
$var wire 1 |! \PC|ALT_INV_DOUT\ [5] $end
$var wire 1 }! \PC|ALT_INV_DOUT\ [4] $end
$var wire 1 ~! \PC|ALT_INV_DOUT\ [3] $end
$var wire 1 !" \PC|ALT_INV_DOUT\ [2] $end
$var wire 1 "" \PC|ALT_INV_DOUT\ [1] $end
$var wire 1 #" \PC|ALT_INV_DOUT\ [0] $end
$var wire 1 $" \incrementaPC|ALT_INV_Add0~33_sumout\ $end
$var wire 1 %" \incrementaPC|ALT_INV_Add0~29_sumout\ $end
$var wire 1 &" \incrementaPC|ALT_INV_Add0~25_sumout\ $end
$var wire 1 '" \incrementaPC|ALT_INV_Add0~21_sumout\ $end
$var wire 1 (" \incrementaPC|ALT_INV_Add0~17_sumout\ $end
$var wire 1 )" \incrementaPC|ALT_INV_Add0~13_sumout\ $end
$var wire 1 *" \incrementaPC|ALT_INV_Add0~9_sumout\ $end
$var wire 1 +" \incrementaPC|ALT_INV_Add0~5_sumout\ $end
$var wire 1 ," \incrementaPC|ALT_INV_Add0~1_sumout\ $end
$upscope $end
$upscope $end
$enddefinitions $end
#0
$dumpvars
x!
0"
0<
1=
x>
1?
1@
1A
1B
1C
1D
xE
0_
x`
xa
xb
xc
0d
0e
0f
0g
0h
0i
0j
0k
0l
0m
0n
0o
0p
0q
0r
0s
0t
1u
0v
0w
1x
0y
1z
0{
0|
0}
0~
1!!
0"!
1#!
1$!
0%!
1&!
0'!
1(!
1)!
1*!
1+!
0,!
1-!
1.!
1/!
10!
01!
02!
03!
04!
05!
06!
07!
08!
09!
0:!
0;!
0<!
0=!
0>!
0?!
0@!
0A!
1B!
1C!
0D!
0E!
0F!
1G!
0H!
0I!
1J!
0K!
0L!
0M!
1i!
0j!
0k!
0l!
0m!
0n!
1o!
0p!
1q!
0r!
0s!
1t!
1u!
0v!
0w!
0x!
1$"
1%"
1&"
1'"
1("
1)"
1*"
1+"
0,"
x#
x$
x%
1&
xF
xG
xH
1I
0J
0K
0L
0M
0N
0O
0P
0Q
0R
1S
0T
0U
1V
0W
0X
0Y
0Z
0[
0\
0]
0^
0N!
0O!
0P!
0Q!
0R!
0S!
0T!
0U!
0V!
0W!
0X!
0Y!
0Z!
0[!
0\!
0]!
0^!
0_!
1`!
1a!
1b!
1c!
1d!
1e!
1f!
1g!
1h!
1y!
1z!
1{!
1|!
1}!
1~!
1!"
1""
1#"
1'
0(
0)
1*
0+
0,
0-
0.
0/
00
01
02
03
04
05
06
07
08
09
0:
0;
$end
#10000
0&
0I
0z
#20000
1&
1I
1z
1\!
1]!
1^!
1V!
0h!
0""
0!"
0~!
1~
1'!
1,!
0!!
0(!
0*!
0-!
0/!
1x!
1m!
1v!
1l!
1k!
0+"
0*"
0)"
1e
1f
1g
0$!
0)!
0.!
0#!
0&!
0+!
00!
1Q
1P
1O
1j!
1p!
1n!
1:
19
18
1$!
1)!
1.!
1E!
0u
0x
0V
0S
0*
0'
#30000
0&
0I
0z
#40000
1&
1I
1z
1_!
0#"
0C!
1{
1"!
1*!
0v!
0t!
1,"
1d
0,!
1|
0E!
1+!
10!
11!
1+"
1R
0'!
1}
0q!
0j!
0p!
1;
0.!
1*"
0$!
0)!
1E!
0~
12!
1)"
1v
13!
0("
1U
1)
#50000
0&
0I
0z
#60000
1&
1I
1z
0\!
0]!
0^!
1""
1!"
1~!
1~
02!
1'!
0}
1,!
0|
1%!
1(!
0*!
1D!
0o!
1v!
0l!
0u!
0+"
0*"
0)"
0e
0f
0g
0'!
0~
03!
1&!
01!
1M!
1("
1)"
1*"
0Q
0P
0O
1q!
0n!
0:
09
08
1)!
1w
0v
1T
0U
0)
1(
#70000
0&
0I
0z
#80000
1&
1I
1z
1]!
0!"
1'!
0"!
1t!
0*"
1f
0&!
0+!
1H!
1I!
1K!
0M!
1P
1p!
1n!
19
1.!
0E!
0w
1s
1r
1q
0T
1X
1Y
1Z
1.
1-
1,
0(
#90000
0&
0I
0z
#100000
1&
1I
1z
1^!
0_!
1#"
0""
0,!
1|
1C!
0{
0(!
1/!
1@!
0D!
1o!
0i!
0x!
1l!
0,"
1+"
0d
1e
1,!
0|
0'!
1}
0.!
1F!
0H!
0I!
0K!
1E!
1*"
0+"
0R
1Q
1~
1'!
0}
0;
1:
1.!
0)!
0*"
0)"
0~
1$!
1)!
1)"
0s
0r
0q
1m
0$!
0X
0Y
0Z
1^
12
0.
0-
0,
#110000
0&
0I
0z
#120000
1&
1I
1z
1_!
0#"
0C!
1{
0%!
1*!
0/!
1x!
0v!
1u!
1,"
1d
0,!
1|
0E!
0F!
0G!
1K!
1+"
1R
0'!
1}
1r!
1;
0.!
1*"
1~
0)!
0)"
1s
0m
1o
1$!
1X
0^
1\
02
1,
10
#130000
0&
0I
0z
#140000
1&
1I
1z
1\!
0]!
0^!
0_!
1#"
1""
1!"
0~!
0~
12!
1'!
0}
1,!
0|
1C!
0{
1"!
1%!
0*!
1-!
0@!
1i!
0m!
1v!
0u!
0t!
0,"
0+"
0*"
1)"
0d
0e
0f
1g
0,!
0'!
1~
02!
13!
0$!
1)!
1E!
1&!
1+!
1G!
0K!
1M!
1.!
0("
0)"
1*"
1+"
0R
0Q
0P
1O
03!
0r!
0p!
0n!
0;
0:
09
18
0.!
0)!
1$!
14!
1("
04!
0$!
1.!
0E!
1w
0s
0o
1T
0X
0\
0,
1(
00
#150000
0&
0I
0z
#160000
1&
1I
1z
0\!
1^!
0""
1~!
0~
1,!
1!!
0-!
1/!
1D!
0o!
0x!
1m!
0k!
0+"
1)"
1e
0g
1$!
0.!
0&!
0+!
1L!
0M!
1E!
1Q
0O
1p!
1n!
1:
08
0$!
1.!
0w
1t
0T
1W
1+
0(
#170000
0&
0I
0z
#180000
1&
1I
1z
1_!
0#"
0C!
1{
0!!
0"!
0%!
0/!
0D!
1o!
1x!
1u!
1t!
1k!
1,"
1d
0,!
1|
00!
0L!
0E!
1+"
1R
1'!
1j!
1;
0.!
0*"
1)!
0t
0W
0+
#190000
0&
0I
0z
#200000
1&
1I
1z
1]!
0^!
0_!
1#"
1""
0!"
0'!
1}
1,!
0|
1C!
0{
0,"
0+"
1*"
0d
0e
1f
0,!
1'!
0}
1~
0)!
1.!
1E!
0)"
0*"
1+"
0R
0Q
1P
0~
0;
0:
19
0.!
1)!
1$!
1)"
0$!
#210000
0&
0I
0z
#220000
1&
1I
1z
1_!
0#"
0C!
1{
1%!
1(!
1D!
0o!
0l!
0u!
1,"
1d
1,!
10!
1H!
1I!
1K!
0E!
0+"
1R
0j!
1;
1.!
1s
1r
1q
1X
1Y
1Z
1.
1-
1,
#230000
0&
0I
0z
#240000
1&
1I
1z
1^!
0_!
1#"
0""
0,!
1|
1C!
0{
0(!
1/!
1@!
0D!
1o!
0i!
0x!
1l!
0,"
1+"
0d
1e
1,!
0|
0'!
1}
0.!
1F!
0H!
0I!
0K!
1E!
1*"
0+"
0R
1Q
1~
1'!
0}
0;
1:
1.!
0)!
0*"
0)"
0~
1$!
1)!
1)"
0s
0r
0q
1m
0$!
0X
0Y
0Z
1^
12
0.
0-
0,
#250000
0&
0I
0z
#260000
1&
1I
1z
1_!
0#"
0C!
1{
0%!
1*!
0/!
1x!
0v!
1u!
1,"
1d
0,!
1|
0E!
0F!
0G!
1K!
1+"
1R
0'!
1}
1r!
1;
0.!
1*"
1~
0)!
0)"
1s
0m
1o
1$!
1X
0^
1\
02
1,
10
#270000
0&
0I
0z
#280000
1&
1I
1z
1\!
0]!
0^!
0_!
1#"
1""
1!"
0~!
0~
12!
1'!
0}
1,!
0|
1C!
0{
1"!
1%!
0*!
1-!
0@!
1i!
0m!
1v!
0u!
0t!
0,"
0+"
0*"
1)"
0d
0e
0f
1g
0,!
0'!
1~
02!
13!
0$!
1)!
1E!
1&!
1+!
1G!
0K!
1M!
1.!
0("
0)"
1*"
1+"
0R
0Q
0P
1O
03!
0r!
0p!
0n!
0;
0:
09
18
0.!
0)!
1$!
14!
1("
04!
0$!
1.!
0E!
1w
0s
0o
1T
0X
0\
0,
1(
00
#290000
0&
0I
0z
#300000
1&
1I
1z
0\!
1^!
0""
1~!
0~
1,!
1!!
0-!
1/!
1D!
0o!
0x!
1m!
0k!
0+"
1)"
1e
0g
1$!
0.!
0&!
0+!
1L!
0M!
1E!
1Q
0O
1p!
1n!
1:
08
0$!
1.!
0w
1t
0T
1W
1+
0(
#310000
0&
0I
0z
#320000
1&
1I
1z
1_!
0#"
0C!
1{
0!!
0"!
0%!
0/!
0D!
1o!
1x!
1u!
1t!
1k!
1,"
1d
0,!
1|
00!
0L!
0E!
1+"
1R
1'!
1j!
1;
0.!
0*"
1)!
0t
0W
0+
#330000
0&
0I
0z
#340000
1&
1I
1z
1]!
0^!
0_!
1#"
1""
0!"
0'!
1}
1,!
0|
1C!
0{
0,"
0+"
1*"
0d
0e
1f
0,!
1'!
0}
1~
0)!
1.!
1E!
0)"
0*"
1+"
0R
0Q
1P
0~
0;
0:
19
0.!
1)!
1$!
1)"
0$!
#350000
0&
0I
0z
#360000
1&
1I
1z
1_!
0#"
0C!
1{
1%!
1(!
1D!
0o!
0l!
0u!
1,"
1d
1,!
10!
1H!
1I!
1K!
0E!
0+"
1R
0j!
1;
1.!
1s
1r
1q
1X
1Y
1Z
1.
1-
1,
#370000
0&
0I
0z
#380000
1&
1I
1z
1^!
0_!
1#"
0""
0,!
1|
1C!
0{
0(!
1/!
1@!
0D!
1o!
0i!
0x!
1l!
0,"
1+"
0d
1e
1,!
0|
0'!
1}
0.!
1F!
0H!
0I!
0K!
1E!
1*"
0+"
0R
1Q
1~
1'!
0}
0;
1:
1.!
0)!
0*"
0)"
0~
1$!
1)!
1)"
0s
0r
0q
1m
0$!
0X
0Y
0Z
1^
12
0.
0-
0,
#390000
0&
0I
0z
#400000
1&
1I
1z
1_!
0#"
0C!
1{
0%!
1*!
0/!
1x!
0v!
1u!
1,"
1d
0,!
1|
0E!
0F!
0G!
1K!
1+"
1R
0'!
1}
1r!
1;
0.!
1*"
1~
0)!
0)"
1s
0m
1o
1$!
1X
0^
1\
02
1,
10
#410000
0&
0I
0z
#420000
1&
1I
1z
1\!
0]!
0^!
0_!
1#"
1""
1!"
0~!
0~
12!
1'!
0}
1,!
0|
1C!
0{
1"!
1%!
0*!
1-!
0@!
1i!
0m!
1v!
0u!
0t!
0,"
0+"
0*"
1)"
0d
0e
0f
1g
0,!
0'!
1~
02!
13!
0$!
1)!
1E!
1&!
1+!
1G!
0K!
1M!
1.!
0("
0)"
1*"
1+"
0R
0Q
0P
1O
03!
0r!
0p!
0n!
0;
0:
09
18
0.!
0)!
1$!
14!
1("
04!
0$!
1.!
0E!
1w
0s
0o
1T
0X
0\
0,
1(
00
#430000
0&
0I
0z
#440000
1&
1I
1z
0\!
1^!
0""
1~!
0~
1,!
1!!
0-!
1/!
1D!
0o!
0x!
1m!
0k!
0+"
1)"
1e
0g
1$!
0.!
0&!
0+!
1L!
0M!
1E!
1Q
0O
1p!
1n!
1:
08
0$!
1.!
0w
1t
0T
1W
1+
0(
#450000
0&
0I
0z
#460000
1&
1I
1z
1_!
0#"
0C!
1{
0!!
0"!
0%!
0/!
0D!
1o!
1x!
1u!
1t!
1k!
1,"
1d
0,!
1|
00!
0L!
0E!
1+"
1R
1'!
1j!
1;
0.!
0*"
1)!
0t
0W
0+
#470000
0&
0I
0z
#480000
1&
1I
1z
1]!
0^!
0_!
1#"
1""
0!"
0'!
1}
1,!
0|
1C!
0{
0,"
0+"
1*"
0d
0e
1f
0,!
1'!
0}
1~
0)!
1.!
1E!
0)"
0*"
1+"
0R
0Q
1P
0~
0;
0:
19
0.!
1)!
1$!
1)"
0$!
#490000
0&
0I
0z
#500000
1&
1I
1z
1_!
0#"
0C!
1{
1%!
1(!
1D!
0o!
0l!
0u!
1,"
1d
1,!
10!
1H!
1I!
1K!
0E!
0+"
1R
0j!
1;
1.!
1s
1r
1q
1X
1Y
1Z
1.
1-
1,
#510000
0&
0I
0z
#520000
1&
1I
1z
1^!
0_!
1#"
0""
0,!
1|
1C!
0{
0(!
1/!
1@!
0D!
1o!
0i!
0x!
1l!
0,"
1+"
0d
1e
1,!
0|
0'!
1}
0.!
1F!
0H!
0I!
0K!
1E!
1*"
0+"
0R
1Q
1~
1'!
0}
0;
1:
1.!
0)!
0*"
0)"
0~
1$!
1)!
1)"
0s
0r
0q
1m
0$!
0X
0Y
0Z
1^
12
0.
0-
0,
#530000
0&
0I
0z
#540000
1&
1I
1z
1_!
0#"
0C!
1{
0%!
1*!
0/!
1x!
0v!
1u!
1,"
1d
0,!
1|
0E!
0F!
0G!
1K!
1+"
1R
0'!
1}
1r!
1;
0.!
1*"
1~
0)!
0)"
1s
0m
1o
1$!
1X
0^
1\
02
1,
10
#550000
0&
0I
0z
#560000
1&
1I
1z
1\!
0]!
0^!
0_!
1#"
1""
1!"
0~!
0~
12!
1'!
0}
1,!
0|
1C!
0{
1"!
1%!
0*!
1-!
0@!
1i!
0m!
1v!
0u!
0t!
0,"
0+"
0*"
1)"
0d
0e
0f
1g
0,!
0'!
1~
02!
13!
0$!
1)!
1E!
1&!
1+!
1G!
0K!
1M!
1.!
0("
0)"
1*"
1+"
0R
0Q
0P
1O
03!
0r!
0p!
0n!
0;
0:
09
18
0.!
0)!
1$!
14!
1("
04!
0$!
1.!
0E!
1w
0s
0o
1T
0X
0\
0,
1(
00
#570000
0&
0I
0z
#580000
1&
1I
1z
0\!
1^!
0""
1~!
0~
1,!
1!!
0-!
1/!
1D!
0o!
0x!
1m!
0k!
0+"
1)"
1e
0g
1$!
0.!
0&!
0+!
1L!
0M!
1E!
1Q
0O
1p!
1n!
1:
08
0$!
1.!
0w
1t
0T
1W
1+
0(
#590000
0&
0I
0z
