aula13/simulation/qsim/atv13.msim.vcd
$comment
	File created using the following command:
		vcd file atv13.msim.vcd -direction
$end
$date
	Sat Oct 26 23:04:09 2024
$end
$version
	ModelSim Version 2020.1
$end
$timescale
	1ps
$end

$scope module atv13_vhd_vec_tst $end
$var wire 1 ! CLOCK_50 $end
$var wire 1 " KEY [3] $end
$var wire 1 # KEY [2] $end
$var wire 1 $ KEY [1] $end
$var wire 1 % KEY [0] $end
$var wire 1 & SAIDA_INSTRU $end
$var wire 1 ' SAIDA_ULA [31] $end
$var wire 1 ( SAIDA_ULA [30] $end
$var wire 1 ) SAIDA_ULA [29] $end
$var wire 1 * SAIDA_ULA [28] $end
$var wire 1 + SAIDA_ULA [27] $end
$var wire 1 , SAIDA_ULA [26] $end
$var wire 1 - SAIDA_ULA [25] $end
$var wire 1 . SAIDA_ULA [24] $end
$var wire 1 / SAIDA_ULA [23] $end
$var wire 1 0 SAIDA_ULA [22] $end
$var wire 1 1 SAIDA_ULA [21] $end
$var wire 1 2 SAIDA_ULA [20] $end
$var wire 1 3 SAIDA_ULA [19] $end
$var wire 1 4 SAIDA_ULA [18] $end
$var wire 1 5 SAIDA_ULA [17] $end
$var wire 1 6 SAIDA_ULA [16] $end
$var wire 1 7 SAIDA_ULA [15] $end
$var wire 1 8 SAIDA_ULA [14] $end
$var wire 1 9 SAIDA_ULA [13] $end
$var wire 1 : SAIDA_ULA [12] $end
$var wire 1 ; SAIDA_ULA [11] $end
$var wire 1 < SAIDA_ULA [10] $end
$var wire 1 = SAIDA_ULA [9] $end
$var wire 1 > SAIDA_ULA [8] $end
$var wire 1 ? SAIDA_ULA [7] $end
$var wire 1 @ SAIDA_ULA [6] $end
$var wire 1 A SAIDA_ULA [5] $end
$var wire 1 B SAIDA_ULA [4] $end
$var wire 1 C SAIDA_ULA [3] $end
$var wire 1 D SAIDA_ULA [2] $end
$var wire 1 E SAIDA_ULA [1] $end
$var wire 1 F SAIDA_ULA [0] $end

$scope module i1 $end
$var wire 1 G gnd $end
$var wire 1 H vcc $end
$var wire 1 I unknown $end
$var wire 1 J devoe $end
$var wire 1 K devclrn $end
$var wire 1 L devpor $end
$var wire 1 M ww_devoe $end
$var wire 1 N ww_devclrn $end
$var wire 1 O ww_devpor $end
$var wire 1 P ww_CLOCK_50 $end
$var wire 1 Q ww_KEY [3] $end
$var wire 1 R ww_KEY [2] $end
$var wire 1 S ww_KEY [1] $end
$var wire 1 T ww_KEY [0] $end
$var wire 1 U ww_SAIDA_ULA [31] $end
$var wire 1 V ww_SAIDA_ULA [30] $end
$var wire 1 W ww_SAIDA_ULA [29] $end
$var wire 1 X ww_SAIDA_ULA [28] $end
$var wire 1 Y ww_SAIDA_ULA [27] $end
$var wire 1 Z ww_SAIDA_ULA [26] $end
$var wire 1 [ ww_SAIDA_ULA [25] $end
$var wire 1 \ ww_SAIDA_ULA [24] $end
$var wire 1 ] ww_SAIDA_ULA [23] $end
$var wire 1 ^ ww_SAIDA_ULA [22] $end
$var wire 1 _ ww_SAIDA_ULA [21] $end
$var wire 1 ` ww_SAIDA_ULA [20] $end
$var wire 1 a ww_SAIDA_ULA [19] $end
$var wire 1 b ww_SAIDA_ULA [18] $end
$var wire 1 c ww_SAIDA_ULA [17] $end
$var wire 1 d ww_SAIDA_ULA [16] $end
$var wire 1 e ww_SAIDA_ULA [15] $end
$var wire 1 f ww_SAIDA_ULA [14] $end
$var wire 1 g ww_SAIDA_ULA [13] $end
$var wire 1 h ww_SAIDA_ULA [12] $end
$var wire 1 i ww_SAIDA_ULA [11] $end
$var wire 1 j ww_SAIDA_ULA [10] $end
$var wire 1 k ww_SAIDA_ULA [9] $end
$var wire 1 l ww_SAIDA_ULA [8] $end
$var wire 1 m ww_SAIDA_ULA [7] $end
$var wire 1 n ww_SAIDA_ULA [6] $end
$var wire 1 o ww_SAIDA_ULA [5] $end
$var wire 1 p ww_SAIDA_ULA [4] $end
$var wire 1 q ww_SAIDA_ULA [3] $end
$var wire 1 r ww_SAIDA_ULA [2] $end
$var wire 1 s ww_SAIDA_ULA [1] $end
$var wire 1 t ww_SAIDA_ULA [0] $end
$var wire 1 u ww_SAIDA_INSTRU $end
$var wire 1 v \CLOCK_50~input_o\ $end
$var wire 1 w \KEY[1]~input_o\ $end
$var wire 1 x \KEY[2]~input_o\ $end
$var wire 1 y \KEY[3]~input_o\ $end
$var wire 1 z \SAIDA_ULA[0]~output_o\ $end
$var wire 1 { \SAIDA_ULA[1]~output_o\ $end
$var wire 1 | \SAIDA_ULA[2]~output_o\ $end
$var wire 1 } \SAIDA_ULA[3]~output_o\ $end
$var wire 1 ~ \SAIDA_ULA[4]~output_o\ $end
$var wire 1 !! \SAIDA_ULA[5]~output_o\ $end
$var wire 1 "! \SAIDA_ULA[6]~output_o\ $end
$var wire 1 #! \SAIDA_ULA[7]~output_o\ $end
$var wire 1 $! \SAIDA_ULA[8]~output_o\ $end
$var wire 1 %! \SAIDA_ULA[9]~output_o\ $end
$var wire 1 &! \SAIDA_ULA[10]~output_o\ $end
$var wire 1 '! \SAIDA_ULA[11]~output_o\ $end
$var wire 1 (! \SAIDA_ULA[12]~output_o\ $end
$var wire 1 )! \SAIDA_ULA[13]~output_o\ $end
$var wire 1 *! \SAIDA_ULA[14]~output_o\ $end
$var wire 1 +! \SAIDA_ULA[15]~output_o\ $end
$var wire 1 ,! \SAIDA_ULA[16]~output_o\ $end
$var wire 1 -! \SAIDA_ULA[17]~output_o\ $end
$var wire 1 .! \SAIDA_ULA[18]~output_o\ $end
$var wire 1 /! \SAIDA_ULA[19]~output_o\ $end
$var wire 1 0! \SAIDA_ULA[20]~output_o\ $end
$var wire 1 1! \SAIDA_ULA[21]~output_o\ $end
$var wire 1 2! \SAIDA_ULA[22]~output_o\ $end
$var wire 1 3! \SAIDA_ULA[23]~output_o\ $end
$var wire 1 4! \SAIDA_ULA[24]~output_o\ $end
$var wire 1 5! \SAIDA_ULA[25]~output_o\ $end
$var wire 1 6! \SAIDA_ULA[26]~output_o\ $end
$var wire 1 7! \SAIDA_ULA[27]~output_o\ $end
$var wire 1 8! \SAIDA_ULA[28]~output_o\ $end
$var wire 1 9! \SAIDA_ULA[29]~output_o\ $end
$var wire 1 :! \SAIDA_ULA[30]~output_o\ $end
$var wire 1 ;! \SAIDA_ULA[31]~output_o\ $end
$var wire 1 <! \SAIDA_INSTRU~output_o\ $end
$var wire 1 =! \KEY[0]~input_o\ $end
$var wire 1 >! \PC|DOUT[2]~0_combout\ $end
$var wire 1 ?! \incrementaPC|Add0~9_sumout\ $end
$var wire 1 @! \incrementaPC|Add0~10\ $end
$var wire 1 A! \incrementaPC|Add0~13_sumout\ $end
$var wire 1 B! \incrementaPC|Add0~14\ $end
$var wire 1 C! \incrementaPC|Add0~17_sumout\ $end
$var wire 1 D! \incrementaPC|Add0~18\ $end
$var wire 1 E! \incrementaPC|Add0~5_sumout\ $end
$var wire 1 F! \incrementaPC|Add0~6\ $end
$var wire 1 G! \incrementaPC|Add0~1_sumout\ $end
$var wire 1 H! \ROM|memROM~0_combout\ $end
$var wire 1 I! \PC|DOUT\ [31] $end
$var wire 1 J! \PC|DOUT\ [30] $end
$var wire 1 K! \PC|DOUT\ [29] $end
$var wire 1 L! \PC|DOUT\ [28] $end
$var wire 1 M! \PC|DOUT\ [27] $end
$var wire 1 N! \PC|DOUT\ [26] $end
$var wire 1 O! \PC|DOUT\ [25] $end
$var wire 1 P! \PC|DOUT\ [24] $end
$var wire 1 Q! \PC|DOUT\ [23] $end
$var wire 1 R! \PC|DOUT\ [22] $end
$var wire 1 S! \PC|DOUT\ [21] $end
$var wire 1 T! \PC|DOUT\ [20] $end
$var wire 1 U! \PC|DOUT\ [19] $end
$var wire 1 V! \PC|DOUT\ [18] $end
$var wire 1 W! \PC|DOUT\ [17] $end
$var wire 1 X! \PC|DOUT\ [16] $end
$var wire 1 Y! \PC|DOUT\ [15] $end
$var wire 1 Z! \PC|DOUT\ [14] $end
$var wire 1 [! \PC|DOUT\ [13] $end
$var wire 1 \! \PC|DOUT\ [12] $end
$var wire 1 ]! \PC|DOUT\ [11] $end
$var wire 1 ^! \PC|DOUT\ [10] $end
$var wire 1 _! \PC|DOUT\ [9] $end
$var wire 1 `! \PC|DOUT\ [8] $end
$var wire 1 a! \PC|DOUT\ [7] $end
$var wire 1 b! \PC|DOUT\ [6] $end
$var wire 1 c! \PC|DOUT\ [5] $end
$var wire 1 d! \PC|DOUT\ [4] $end
$var wire 1 e! \PC|DOUT\ [3] $end
$var wire 1 f! \PC|DOUT\ [2] $end
$var wire 1 g! \PC|DOUT\ [1] $end
$var wire 1 h! \PC|DOUT\ [0] $end
$var wire 1 i! \PC|ALT_INV_DOUT\ [7] $end
$var wire 1 j! \PC|ALT_INV_DOUT\ [6] $end
$var wire 1 k! \PC|ALT_INV_DOUT\ [5] $end
$var wire 1 l! \PC|ALT_INV_DOUT\ [4] $end
$var wire 1 m! \PC|ALT_INV_DOUT\ [3] $end
$var wire 1 n! \PC|ALT_INV_DOUT\ [2] $end
$upscope $end
$upscope $end
$enddefinitions $end
#0
$dumpvars
x!
1&
0G
1H
xI
1J
1K
1L
1M
1N
1O
xP
1u
xv
xw
xx
xy
0z
0{
0|
0}
0~
0!!
0"!
0#!
0$!
0%!
0&!
0'!
0(!
0)!
0*!
0+!
0,!
0-!
0.!
0/!
00!
01!
02!
03!
04!
05!
06!
07!
08!
09!
0:!
0;!
1<!
1=!
1>!
0?!
0@!
0A!
0B!
0C!
0D!
0E!
0F!
0G!
0H!
x"
x#
x$
1%
xQ
xR
xS
1T
0U
0V
0W
0X
0Y
0Z
0[
0\
0]
0^
0_
0`
0a
0b
0c
0d
0e
0f
0g
0h
0i
0j
0k
0l
0m
0n
0o
0p
0q
0r
0s
0t
xI!
xJ!
xK!
xL!
xM!
xN!
xO!
xP!
xQ!
xR!
xS!
xT!
xU!
xV!
xW!
xX!
xY!
xZ!
x[!
x\!
x]!
x^!
x_!
x`!
0a!
0b!
0c!
0d!
0e!
0f!
xg!
xh!
1i!
1j!
1k!
1l!
1m!
1n!
0'
0(
0)
0*
0+
0,
0-
0.
0/
00
01
02
03
04
05
06
07
08
09
0:
0;
0<
0=
0>
0?
0@
0A
0B
0C
0D
0E
0F
$end
#10000
0%
0T
0=!
#20000
1%
1T
1=!
1f!
0n!
0>!
1?!
1H!
1{
1s
1E
#30000
0%
0T
0=!
#40000
1%
1T
1=!
0f!
1e!
0m!
1n!
1>!
#50000
0%
0T
0=!
#60000
1%
1T
1=!
1f!
0n!
0>!
0?!
1@!
0H!
1A!
0{
0s
0E
#70000
0%
0T
0=!
#80000
1%
1T
1=!
0f!
0e!
1d!
0l!
1m!
1n!
1>!
0@!
0A!
1B!
1C!
1A!
0B!
0C!
#90000
0%
0T
0=!
#100000
1%
1T
1=!
1f!
0n!
0>!
1?!
#110000
0%
0T
0=!
#120000
1%
1T
1=!
0f!
1e!
0m!
1n!
1>!
#130000
0%
0T
0=!
#140000
1%
1T
1=!
1f!
0n!
0>!
0?!
1@!
0A!
1B!
1C!
#150000
0%
0T
0=!
#160000
1%
1T
1=!
0f!
0e!
0d!
1c!
0k!
1l!
1m!
1n!
1>!
0@!
1A!
0B!
0C!
1D!
1E!
1C!
0D!
0A!
0E!
#170000
0%
0T
0=!
#180000
1%
1T
1=!
1f!
0n!
0>!
1?!
#190000
0%
0T
0=!
#200000
1%
1T
1=!
0f!
1e!
0m!
1n!
1>!
#210000
0%
0T
0=!
#220000
1%
1T
1=!
1f!
0n!
0>!
0?!
1@!
1A!
#230000
0%
0T
0=!
#240000
1%
1T
1=!
0f!
0e!
1d!
0l!
1m!
1n!
1>!
0@!
0A!
1B!
0C!
1D!
1A!
0B!
1C!
0D!
1E!
0E!
#250000
0%
0T
0=!
#260000
1%
1T
1=!
1f!
0n!
0>!
1?!
#270000
0%
0T
0=!
#280000
1%
1T
1=!
0f!
1e!
0m!
1n!
1>!
#290000
0%
0T
0=!
#300000
1%
1T
1=!
1f!
0n!
0>!
0?!
1@!
0A!
1B!
0C!
1D!
1E!
#310000
0%
0T
0=!
#320000
1%
1T
1=!
0f!
0e!
0d!
0c!
1b!
0j!
1k!
1l!
1m!
1n!
1>!
0@!
1A!
0B!
1C!
0D!
0E!
1F!
1G!
1E!
0F!
0C!
0A!
0G!
#330000
0%
0T
0=!
#340000
1%
1T
1=!
1f!
0n!
0>!
1?!
#350000
0%
0T
0=!
#360000
1%
1T
1=!
0f!
1e!
0m!
1n!
1>!
#370000
0%
0T
0=!
#380000
1%
1T
1=!
1f!
0n!
0>!
0?!
1@!
1A!
#390000
0%
0T
0=!
#400000
1%
1T
1=!
0f!
0e!
1d!
0l!
1m!
1n!
1>!
0@!
0A!
1B!
1C!
1A!
0B!
0C!
#410000
0%
0T
0=!
#420000
1%
1T
1=!
1f!
0n!
0>!
1?!
#430000
0%
0T
0=!
#440000
1%
1T
1=!
0f!
1e!
0m!
1n!
1>!
#450000
0%
0T
0=!
#460000
1%
1T
1=!
1f!
0n!
0>!
0?!
1@!
0A!
1B!
1C!
#470000
0%
0T
0=!
#480000
1%
1T
1=!
0f!
0e!
0d!
1c!
0k!
1l!
1m!
1n!
1>!
0@!
1A!
0B!
0C!
1D!
0E!
1F!
1C!
0D!
0A!
1E!
0F!
1G!
0G!
#490000
0%
0T
0=!
#500000
1%
1T
1=!
1f!
0n!
0>!
1?!
#510000
0%
0T
0=!
#520000
1%
1T
1=!
0f!
1e!
0m!
1n!
1>!
#530000
0%
0T
0=!
#540000
1%
1T
1=!
1f!
0n!
0>!
0?!
1@!
1A!
#550000
0%
0T
0=!
#560000
1%
1T
1=!
0f!
0e!
1d!
0l!
1m!
1n!
1>!
0@!
0A!
1B!
0C!
1D!
1A!
0B!
1C!
0D!
0E!
1F!
1G!
1E!
0F!
0G!
#570000
0%
0T
0=!
#580000
1%
1T
1=!
1f!
0n!
0>!
1?!
#590000
0%
0T
0=!
#600000
1%
1T
1=!
0f!
1e!
0m!
1n!
1>!
#610000
0%
0T
0=!
#620000
1%
1T
1=!
1f!
0n!
0>!
0?!
1@!
0A!
1B!
0C!
1D!
0E!
1F!
1G!
#630000
0%
0T
0=!
#640000
1%
1T
1=!
0f!
0e!
0d!
0c!
0b!
1a!
0i!
1j!
1k!
1l!
1m!
1n!
1>!
0@!
1A!
0B!
1C!
0D!
1E!
0F!
0G!
1G!
0E!
0C!
0A!
#650000
0%
0T
0=!
#660000
1%
1T
1=!
1f!
0n!
0>!
1?!
#670000
0%
0T
0=!
#680000
1%
1T
1=!
0f!
1e!
0m!
1n!
1>!
#690000
0%
0T
0=!
#700000
1%
1T
1=!
1f!
0n!
0>!
0?!
1@!
1A!
#710000
0%
0T
0=!
#720000
1%
1T
1=!
0f!
0e!
1d!
0l!
1m!
1n!
1>!
0@!
0A!
1B!
1C!
1A!
0B!
0C!
#730000
0%
0T
0=!
#740000
1%
1T
1=!
1f!
0n!
0>!
1?!
#750000
0%
0T
0=!
#760000
1%
1T
1=!
0f!
1e!
0m!
1n!
1>!
#770000
0%
0T
0=!
#780000
1%
1T
1=!
1f!
0n!
0>!
0?!
1@!
0A!
1B!
1C!
#790000
0%
0T
0=!
#800000
1%
1T
1=!
0f!
0e!
0d!
1c!
0k!
1l!
1m!
1n!
1>!
0@!
1A!
0B!
0C!
1D!
1E!
1C!
0D!
0A!
0E!
#810000
0%
0T
0=!
#820000
1%
1T
1=!
1f!
0n!
0>!
1?!
#830000
0%
0T
0=!
#840000
1%
1T
1=!
0f!
1e!
0m!
1n!
1>!
#850000
0%
0T
0=!
#860000
1%
1T
1=!
1f!
0n!
0>!
0?!
1@!
1A!
#870000
0%
0T
0=!
#880000
1%
1T
1=!
0f!
0e!
1d!
0l!
1m!
1n!
1>!
0@!
0A!
1B!
0C!
1D!
1A!
0B!
1C!
0D!
1E!
0E!
#890000
0%
0T
0=!
#900000
1%
1T
1=!
1f!
0n!
0>!
1?!
#910000
0%
0T
0=!
#920000
1%
1T
1=!
0f!
1e!
0m!
1n!
1>!
#930000
0%
0T
0=!
#940000
1%
1T
1=!
1f!
0n!
0>!
0?!
1@!
0A!
1B!
0C!
1D!
1E!
#950000
0%
0T
0=!
#960000
1%
1T
1=!
0f!
0e!
0d!
0c!
1b!
0j!
1k!
1l!
1m!
1n!
1>!
0@!
1A!
0B!
1C!
0D!
0E!
1F!
0G!
1E!
0F!
0C!
0A!
1G!
#970000
0%
0T
0=!
#980000
1%
1T
1=!
1f!
0n!
0>!
1?!
#990000
0%
0T
0=!
